{
    "type": "mysql",
    "host": "45.181.250.100",
    "port": 3306,
    "username": "root",
    "password": ".4C3r04dm1n",
    "database": "jwt-auth-exmaple",
    "entities": ["dist/entity/**/*.js"],
    "synchronize": true
}